Introduction to R
…
Tibbles

Note: The result from a dplyr call is a so-called tibble, which is similar to a data frame, but has some improvements. For example, it shows the data type and dimensions of the data frame, as well as it is easier to print in the console.

## # A tibble: 30 x 3
##    plotid soiltype yield
##     <int>    <chr> <int>
##  1      1     sand     6
##  2      2     sand    10
##  3      3     sand     8
##  4      4     sand     6
##  5      5     sand    14
##  6      6     sand    17
##  7      7     sand     9
##  8      8     sand    11
##  9      9     sand     7
## 10     10     sand    11
## # ... with 20 more rows

Grouping data

We also can use the mutate() function within groups, e.g. for centering the yields within groups:

yields2_tidy <- yields2_tidy %>%
  group_by(soiltype, grain) %>%
  mutate(yield_centered = yield - mean(yield))

yields2_tidy

## # A tibble: 60 x 7
## # Groups:   soiltype, grain [6]
##    plotid soiltype grain yield yield_log yield_log10 yield_centered
##     <int>    <chr> <chr> <int>     <dbl>       <dbl>          <dbl>
##  1      1     sand  fine     6  1.791759   0.7781513           -3.9
##  2      2     sand  fine    10  2.302585   1.0000000            0.1
##  3      3     sand  fine     8  2.079442   0.9030900           -1.9
##  4      4     sand  fine     6  1.791759   0.7781513           -3.9
##  5      5     sand  fine    14  2.639057   1.1461280            4.1
##  6      6     sand  fine    17  2.833213   1.2304489            7.1
##  7      7     sand  fine     9  2.197225   0.9542425           -0.9
##  8      8     sand  fine    11  2.397895   1.0413927            1.1
##  9      9     sand  fine     7  1.945910   0.8450980           -2.9
## 10     10     sand  fine    11  2.397895   1.0413927            1.1
## # ... with 50 more rows
…
